{
  "project_info": {
    "project_number": "744867439059",
    "project_id": "my-firebase-f3def",
    "storage_bucket": "my-firebase-f3def.appspot.com"
  },
  "client": [
    {
      "client_info": {
        "mobilesdk_app_id": "1:744867439059:android:e789670950155234208f26",
        "android_client_info": {
          "package_name": "com.edugaon.myfirebaseapp"
        }
      },
      "oauth_client": [
        {
          "client_id": "744867439059-m55ikc4t0e0653555hlmle2ghjrcj68h.apps.googleusercontent.com",
          "client_type": 3
        }
      ],
      "api_key": [
        {
          "current_key": "AIzaSyANT70yA17dgvutiUv45CZLeWNSRjaVre0"
        }
      ],
      "services": {
        "appinvite_service": {
          "other_platform_oauth_client": [
            {
              "client_id": "744867439059-m55ikc4t0e0653555hlmle2ghjrcj68h.apps.googleusercontent.com",
              "client_type": 3
            }
          ]
        }
      }
    },
    {
      "client_info": {
        "mobilesdk_app_id": "1:744867439059:android:4b66cf4e16630504208f26",
        "android_client_info": {
          "package_name": "com.edugaon.whataplication"
        }
      },
      "oauth_client": [
        {
          "client_id": "744867439059-m55ikc4t0e0653555hlmle2ghjrcj68h.apps.googleusercontent.com",
          "client_type": 3
        }
      ],
      "api_key": [
        {
          "current_key": "AIzaSyANT70yA17dgvutiUv45CZLeWNSRjaVre0"
        }
      ],
      "services": {
        "appinvite_service": {
          "other_platform_oauth_client": [
            {
              "client_id": "744867439059-m55ikc4t0e0653555hlmle2ghjrcj68h.apps.googleusercontent.com",
              "client_type": 3
            }
          ]
        }
      }
    },
    {
      "client_info": {
        "mobilesdk_app_id": "1:744867439059:android:da0e12ed0c5dd94f208f26",
        "android_client_info": {
          "package_name": "com.edugaon.whatsaap"
        }
      },
      "oauth_client": [
        {
          "client_id": "744867439059-m55ikc4t0e0653555hlmle2ghjrcj68h.apps.googleusercontent.com",
          "client_type": 3
        }
      ],
      "api_key": [
        {
          "current_key": "AIzaSyANT70yA17dgvutiUv45CZLeWNSRjaVre0"
        }
      ],
      "services": {
        "appinvite_service": {
          "other_platform_oauth_client": [
            {
              "client_id": "744867439059-m55ikc4t0e0653555hlmle2ghjrcj68h.apps.googleusercontent.com",
              "client_type": 3
            }
          ]
        }
      }
    }
  ],
  "configuration_version": "1"
}